Tidyverse
…
---

count: false

.panel1-chunk-34-auto[

```r
*data_banco
```
]
 
.panel2-chunk-34-auto[

```
## # A tibble: 24,299 x 7
##    Sucursal Cajero ID_Transaccion Transaccion              Tiemp~1 Satis~2 Monto
##       <dbl>  <dbl> <chr>          <chr>                      <dbl> <chr>   <chr>
##  1       62   4820 2              Cobro/Pago (Cta externa)     311 Muy Bu~ 2889~
##  2       62   4820 2              Cobro/Pago (Cta externa)     156 Malo    1670~
##  3       62   4820 2              Cobro/Pago (Cta externa)     248 Regular 3172~
##  4       62   4820 2              Cobro/Pago (Cta externa)      99 Regular 1764~
##  5       62   4820 2              Cobro/Pago (Cta externa)     123 Muy Bu~ 1835~
##  6       62   4820 2              Cobro/Pago (Cta externa)     172 Bueno   2165~
##  7       62   4820 2              Cobro/Pago (Cta externa)     140 Regular 1304~
##  8       62   4820 2              Cobro/Pago (Cta externa)     247 Bueno   4080~
##  9       62   4820 2              Cobro/Pago (Cta externa)     183 Muy Bu~ 2541~
## 10       62   4820 2              Cobro/Pago (Cta externa)      91 Muy Bu~ 2218~
## # ... with 24,289 more rows, and abbreviated variable names
## #   1: Tiempo_Servicio_seg, 2: Satisfaccion
```
…
---
count: false

.panel1-chunk-34-auto[

```r
data_banco %>%
* select(Tiempo_Servicio_seg)
```
]
 
.panel2-chunk-34-auto[

```
## # A tibble: 24,299 x 1
##    Tiempo_Servicio_seg
##                  <dbl>
##  1                 311
##  2                 156
##  3                 248
##  4                  99
##  5                 123
##  6                 172
##  7                 140
##  8                 247
##  9                 183
## 10                  91
## # ... with 24,289 more rows
```
…
