Introducción a R y Tidyverse
…
---

count: false

.panel1-chunk-34-auto[

```r
*data_banco
```
]
 
.panel2-chunk-34-auto[

```
## # A tibble: 24,299 x 7
##    Sucursal Cajero ID_Transaccion Transaccion   Tiempo_Servicio_seg Satisfaccion
##       <dbl>  <dbl> <chr>          <chr>                       <dbl> <chr>       
##  1       62   4820 2              Cobro/Pago (~                 311 Muy Bueno   
##  2       62   4820 2              Cobro/Pago (~                 156 Malo        
##  3       62   4820 2              Cobro/Pago (~                 248 Regular     
##  4       62   4820 2              Cobro/Pago (~                  99 Regular     
##  5       62   4820 2              Cobro/Pago (~                 123 Muy Bueno   
##  6       62   4820 2              Cobro/Pago (~                 172 Bueno       
##  7       62   4820 2              Cobro/Pago (~                 140 Regular     
##  8       62   4820 2              Cobro/Pago (~                 247 Bueno       
##  9       62   4820 2              Cobro/Pago (~                 183 Muy Bueno   
## 10       62   4820 2              Cobro/Pago (~                  91 Muy Bueno   
## # i 24,289 more rows
## # i 1 more variable: Monto <chr>
```
…
---
count: false

.panel1-chunk-34-auto[

```r
data_banco %>%
* select(Tiempo_Servicio_seg)
```
]
 
.panel2-chunk-34-auto[

```
## # A tibble: 24,299 x 1
##    Tiempo_Servicio_seg
##                  <dbl>
##  1                 311
##  2                 156
##  3                 248
##  4                  99
##  5                 123
##  6                 172
##  7                 140
##  8                 247
##  9                 183
## 10                  91
## # i 24,289 more rows
```
…
